<?xml version="1.0" encoding="UTF-8" standalone="no"?>
<!-- Created with Inkscape (http://www.inkscape.org/) -->

<svg
   version="1.1"
   id="svg10107"
   xml:space="preserve"
   width="682.66669"
   height="682.66669"
   viewBox="0 0 682.66669 682.66669"
   xmlns="http://www.w3.org/2000/svg"
   xmlns:svg="http://www.w3.org/2000/svg"><defs
     id="defs10111"><clipPath
       clipPathUnits="userSpaceOnUse"
       id="clipPath10121"><path
         d="M 0,512 H 512 V 0 H 0 Z"
         id="path10119" /></clipPath></defs><g
     id="g10113"
     transform="matrix(1.3333333,0,0,-1.3333333,0,682.66667)"><g
       id="g10115"><g
         id="g10117"
         clip-path="url(#clipPath10121)"><g
           id="g10123"
           transform="translate(315.1973,266.1016)"><path
             d="m 0,0 c 0,0 -8.336,78.531 74.779,122.342 40.682,21.443 64.757,40.792 78.737,54.959 9.228,9.352 25.142,5.085 28.376,-7.65 C 197.699,107.403 207.359,-23.225 0,0"
             style="fill:#a3e440;fill-opacity:1;fill-rule:nonzero;stroke:none"
             id="path10125" /></g><g
           id="g10127"
           transform="translate(497.0928,435.7617)"><path
             d="m 0,0 c 12.939,-50.979 21.758,-147.816 -89.333,-168.461 75.975,32.166 67.728,113.526 56.235,158.766 -0.853,3.389 -2.619,6.185 -4.912,8.27 3.648,3.216 6.836,6.242 9.624,9.064 C -19.156,16.987 -3.234,12.718 0,0"
             style="fill:#8dc637;fill-opacity:1;fill-rule:nonzero;stroke:none"
             id="path10129" /></g><g
           id="g10131"
           transform="translate(411.4873,400.4648)"><path
             d="M 0,0 C -6.598,-3.917 -13.75,-7.931 -21.511,-12.021 -104.626,-55.832 -96.29,-134.363 -96.29,-134.363 111.069,-157.588 101.409,-26.96 85.602,35.288 82.368,48.022 66.454,52.29 57.226,42.938 50.665,36.289 41.881,28.499 30.201,19.888"
             style="fill:none;stroke:#000000;stroke-width:15;stroke-linecap:round;stroke-linejoin:round;stroke-miterlimit:10;stroke-dasharray:none;stroke-opacity:1"
             id="path10133" /></g><g
           id="g10135"
           transform="translate(315.1973,266.1016)"><path
             d="m 0,0 c 0,0 14.103,22.757 59.365,45.787 43.564,22.166 72.452,39.417 93.022,80.853"
             style="fill:none;stroke:#000000;stroke-width:15;stroke-linecap:round;stroke-linejoin:round;stroke-miterlimit:10;stroke-dasharray:none;stroke-opacity:1"
             id="path10137" /></g><g
           id="g10139"
           transform="translate(404.3262,327.8506)"><path
             d="M 0,0 C 0,0 9.295,16.869 10.387,34.68"
             style="fill:none;stroke:#000000;stroke-width:15;stroke-linecap:round;stroke-linejoin:round;stroke-miterlimit:10;stroke-dasharray:none;stroke-opacity:1"
             id="path10141" /></g><g
           id="g10143"
           transform="translate(437.4736,351.3242)"><path
             d="M 0,0 C 0,0 25.408,-0.697 35.986,6.549"
             style="fill:none;stroke:#000000;stroke-width:15;stroke-linecap:round;stroke-linejoin:round;stroke-miterlimit:10;stroke-dasharray:none;stroke-opacity:1"
             id="path10145" /></g><g
           id="g10147"
           transform="translate(261.5762,188.6816)"><path
             d="m 0,0 c 0,-70.161 -56.877,-127.038 -127.038,-127.038 -70.161,0 -127.038,56.877 -127.038,127.038 0,70.161 56.877,127.038 127.038,127.038 C -56.877,127.038 0,70.161 0,0"
             style="fill:#3351c5;fill-opacity:1;fill-rule:nonzero;stroke:none"
             id="path10149" /></g><g
           id="g10151"
           transform="translate(261.5791,188.6836)"><path
             d="m 0,0 c 0,-9.422 -1.021,-18.596 -2.972,-27.429 -2.187,-0.113 -4.385,-0.165 -6.593,-0.165 -70.172,0 -127.041,56.88 -127.041,127.041 0,9.411 1.021,18.595 2.971,27.429 2.188,0.113 4.386,0.165 6.594,0.165 C -56.88,127.041 0,70.161 0,0"
             style="fill:#2944ae;fill-opacity:1;fill-rule:nonzero;stroke:none"
             id="path10153" /></g><g
           id="g10155"
           transform="translate(261.5723,188.6807)"><path
             d="m 0,0 c 0,-70.164 -56.879,-127.043 -127.027,-127.043 -13.405,0 -26.314,2.066 -38.429,5.931 62.376,5.151 111.378,57.418 111.378,121.112 0,63.708 -49.002,115.96 -111.378,121.112 12.115,3.864 25.024,5.931 38.429,5.931 C -56.879,127.043 0,70.163 0,0"
             style="fill:#2944ae;fill-opacity:1;fill-rule:nonzero;stroke:none"
             id="path10157" /></g><g
           id="g10159"
           transform="translate(261.5762,188.6816)"><path
             d="m 0,0 c 0,-70.161 -56.877,-127.038 -127.038,-127.038 -70.161,0 -127.038,56.877 -127.038,127.038 0,70.161 56.877,127.038 127.038,127.038 C -56.877,127.038 0,70.161 0,0 Z"
             style="fill:none;stroke:#000000;stroke-width:15;stroke-linecap:round;stroke-linejoin:round;stroke-miterlimit:10;stroke-dasharray:none;stroke-opacity:1"
             id="path10161" /></g><g
           id="g10163"
           transform="translate(109.2861,204.209)"><path
             d="m 0,0 v 0 c 5.505,4.029 13.176,-0.399 12.438,-7.182 -0.912,-8.389 3.714,-16.403 11.436,-19.807 6.242,-2.753 6.242,-11.61 0,-14.363 C 16.152,-44.756 11.526,-52.77 12.438,-61.159 13.176,-67.941 5.505,-72.37 0,-68.341 v 10e-4 c -6.81,4.985 -16.062,4.985 -22.872,0 v -10e-4 c -5.505,-4.029 -13.176,0.4 -12.438,7.182 0.913,8.389 -3.714,16.403 -11.436,19.807 -6.242,2.753 -6.242,11.61 0,14.363 7.722,3.404 12.349,11.418 11.436,19.807 C -36.048,-0.399 -28.377,4.029 -22.872,0 -16.062,-4.985 -6.81,-4.985 0,0"
             style="fill:#213993;fill-opacity:1;fill-rule:nonzero;stroke:none"
             id="path10165" /></g><g
           id="g10167"
           transform="translate(137.8447,170.0342)"><path
             d="m 0,0 c 0,-2.9 -1.558,-5.8 -4.685,-7.172 -7.068,-3.117 -11.546,-10.102 -11.546,-17.698 0,-0.701 0.03,-1.403 0.113,-2.115 0.031,-0.299 0.052,-0.609 0.052,-0.898 0,-6.263 -7.235,-10.123 -12.497,-6.284 -3.395,2.486 -7.419,3.735 -11.434,3.735 -4.014,0 -8.028,-1.249 -11.434,-3.735 -1.445,-1.063 -3.044,-1.538 -4.602,-1.538 -4.355,0 -8.379,3.726 -7.832,8.72 0.072,0.702 0.113,1.403 0.113,2.094 0,1.796 -0.248,3.561 -0.732,5.253 2.063,-0.423 4.189,-0.639 6.366,-0.639 17.44,0 31.577,14.136 31.577,31.577 0,7.656 -2.724,14.683 -7.254,20.153 1.837,0.619 3.611,1.527 5.232,2.724 5.51,4.024 13.177,-0.403 12.445,-7.182 -0.083,-0.712 -0.113,-1.414 -0.113,-2.115 0,-7.596 4.478,-14.582 11.546,-17.698 C -1.558,5.81 0,2.91 0,0"
             style="fill:#182d7b;fill-opacity:1;fill-rule:nonzero;stroke:none"
             id="path10169" /></g><g
           id="g10171"
           transform="translate(109.2861,204.209)"><path
             d="m 0,0 v 0 c 5.505,4.029 13.176,-0.399 12.438,-7.182 -0.912,-8.389 3.714,-16.403 11.436,-19.807 6.242,-2.753 6.242,-11.61 0,-14.363 C 16.152,-44.756 11.526,-52.77 12.438,-61.159 13.176,-67.941 5.505,-72.37 0,-68.341 v 10e-4 c -6.81,4.985 -16.062,4.985 -22.872,0 v -10e-4 c -5.505,-4.029 -13.176,0.4 -12.438,7.182 0.913,8.389 -3.714,16.403 -11.436,19.807 -6.242,2.753 -6.242,11.61 0,14.363 7.722,3.404 12.349,11.418 11.436,19.807 C -36.048,-0.399 -28.377,4.029 -22.872,0 -16.062,-4.985 -6.81,-4.985 0,0 Z"
             style="fill:none;stroke:#000000;stroke-width:15;stroke-linecap:round;stroke-linejoin:round;stroke-miterlimit:10;stroke-dasharray:none;stroke-opacity:1"
             id="path10173" /></g><g
           id="g10175"
           transform="translate(388.6152,323.3213)"><path
             d="m 0,0 c 0,-70.161 -56.877,-127.038 -127.039,-127.038 -70.161,0 -127.038,56.877 -127.038,127.038 0,70.161 56.877,127.038 127.038,127.038 C -56.877,127.038 0,70.161 0,0"
             style="fill:#6d81d5;fill-opacity:1;fill-rule:nonzero;stroke:none"
             id="path10177" /></g><g
           id="g10179"
           transform="translate(388.6113,323.3193)"><path
             d="m 0,0 c 0,-70.163 -56.88,-127.043 -127.028,-127.043 -13.404,0 -26.314,2.067 -38.429,5.931 62.376,5.152 111.378,57.419 111.378,121.112 0,63.709 -49.002,115.961 -111.378,121.112 12.115,3.865 25.025,5.931 38.429,5.931 C -56.88,127.043 0,70.164 0,0"
             style="fill:#5169cd;fill-opacity:1;fill-rule:nonzero;stroke:none"
             id="path10181" /></g><g
           id="g10183"
           transform="translate(181.2861,224.876)"><path
             d="m 0,0 c 21.884,-17.87 49.834,-28.593 80.29,-28.593 70.162,0 127.039,56.877 127.039,127.038 0,70.161 -56.877,127.038 -127.039,127.038 -70.161,0 -127.038,-56.877 -127.038,-127.038 0,-26.611 8.187,-51.305 22.173,-71.716"
             style="fill:none;stroke:#000000;stroke-width:15;stroke-linecap:round;stroke-linejoin:round;stroke-miterlimit:10;stroke-dasharray:none;stroke-opacity:1"
             id="path10185" /></g><g
           id="g10187"
           transform="translate(287.9346,335.6328)"><path
             d="m 0,0 v 0 c 5.505,4.029 13.176,-0.399 12.438,-7.182 -0.912,-8.389 3.714,-16.403 11.436,-19.807 6.242,-2.752 6.242,-11.61 0,-14.363 C 16.152,-44.756 11.526,-52.77 12.438,-61.159 13.176,-67.941 5.505,-72.37 0,-68.34 c -6.81,4.985 -16.062,4.985 -22.872,0 -5.505,-4.03 -13.176,0.399 -12.438,7.181 0.913,8.389 -3.714,16.403 -11.436,19.807 -6.242,2.753 -6.242,11.611 0,14.363 7.722,3.404 12.349,11.418 11.436,19.807 C -36.048,-0.399 -28.377,4.029 -22.872,0 -16.062,-4.985 -6.81,-4.985 0,0"
             style="fill:#3351c5;fill-opacity:1;fill-rule:nonzero;stroke:none"
             id="path10189" /></g><g
           id="g10191"
           transform="translate(316.4932,301.458)"><path
             d="m 0,0 c 0,-2.899 -1.558,-5.8 -4.685,-7.172 -7.068,-3.117 -11.546,-10.102 -11.546,-17.697 0,-0.702 0.03,-1.404 0.113,-2.116 0.031,-0.299 0.052,-0.609 0.052,-0.898 0,-6.263 -7.235,-10.123 -12.497,-6.284 -3.395,2.486 -7.419,3.735 -11.434,3.735 -4.014,0 -8.028,-1.249 -11.434,-3.735 -1.445,-1.063 -3.044,-1.538 -4.602,-1.538 -4.355,0 -8.379,3.726 -7.832,8.72 0.072,0.702 0.113,1.403 0.113,2.094 0,1.796 -0.248,3.561 -0.732,5.253 2.063,-0.423 4.189,-0.639 6.366,-0.639 17.44,0 31.577,14.136 31.577,31.577 0,7.656 -2.724,14.683 -7.254,20.153 1.837,0.619 3.611,1.527 5.232,2.725 5.51,4.024 13.177,-0.404 12.445,-7.183 -0.083,-0.712 -0.113,-1.414 -0.113,-2.115 0,-7.596 4.478,-14.582 11.546,-17.698 C -1.558,5.81 0,2.91 0,0"
             style="fill:#2944ae;fill-opacity:1;fill-rule:nonzero;stroke:none"
             id="path10193" /></g><g
           id="g10195"
           transform="translate(287.9346,335.6328)"><path
             d="m 0,0 v 0 c 5.505,4.029 13.176,-0.399 12.438,-7.182 -0.912,-8.389 3.714,-16.403 11.436,-19.807 6.242,-2.752 6.242,-11.61 0,-14.363 C 16.152,-44.756 11.526,-52.77 12.438,-61.159 13.176,-67.941 5.505,-72.37 0,-68.34 c -6.81,4.985 -16.062,4.985 -22.872,0 -5.505,-4.03 -13.176,0.399 -12.438,7.181 0.913,8.389 -3.714,16.403 -11.436,19.807 -6.242,2.753 -6.242,11.611 0,14.363 7.722,3.404 12.349,11.418 11.436,19.807 C -36.048,-0.399 -28.377,4.029 -22.872,0 -16.062,-4.985 -6.81,-4.985 0,0 Z"
             style="fill:none;stroke:#000000;stroke-width:15;stroke-linecap:round;stroke-linejoin:round;stroke-miterlimit:10;stroke-dasharray:none;stroke-opacity:1"
             id="path10197" /></g><g
           id="g10199"
           transform="translate(486.3799,188.6816)"><path
             d="m 0,0 c 0,-70.161 -56.877,-127.038 -127.038,-127.038 -70.161,0 -127.038,56.877 -127.038,127.038 0,70.161 56.877,127.038 127.038,127.038 C -56.877,127.038 0,70.161 0,0"
             style="fill:#5169cd;fill-opacity:1;fill-rule:nonzero;stroke:none"
             id="path10201" /></g><g
           id="g10203"
           transform="translate(486.376,188.6807)"><path
             d="m 0,0 c 0,-70.164 -56.879,-127.043 -127.027,-127.043 -13.405,0 -26.314,2.066 -38.429,5.931 62.375,5.151 111.377,57.418 111.377,121.112 0,63.708 -49.002,115.96 -111.377,121.112 12.115,3.864 25.024,5.931 38.429,5.931 C -56.879,127.043 0,70.163 0,0"
             style="fill:#3351c5;fill-opacity:1;fill-rule:nonzero;stroke:none"
             id="path10205" /></g><g
           id="g10207"
           transform="translate(377.4346,62.9316)"><path
             d="m 0,0 c 61.59,8.783 108.945,61.732 108.945,125.75 0,70.161 -56.877,127.038 -127.038,127.038 -70.161,0 -127.038,-56.877 -127.038,-127.038 0,-63.981 47.302,-116.907 108.841,-125.735"
             style="fill:none;stroke:#000000;stroke-width:15;stroke-linecap:round;stroke-linejoin:round;stroke-miterlimit:10;stroke-dasharray:none;stroke-opacity:1"
             id="path10209" /></g><g
           id="g10211"
           transform="translate(406.5273,269.2217)"><path
             d="m 0,0 v 0 c 5.505,4.03 13.176,-0.398 12.438,-7.181 -0.913,-8.389 3.714,-16.403 11.436,-19.807 6.242,-2.753 6.242,-11.611 0,-14.363 C 16.152,-44.756 11.525,-52.77 12.438,-61.158 13.176,-67.941 5.505,-72.37 0,-68.34 c -6.81,4.985 -16.062,4.985 -22.872,0 -5.505,-4.03 -13.176,0.399 -12.439,7.182 0.914,8.388 -3.713,16.402 -11.435,19.807 -6.242,2.752 -6.242,11.61 0,14.363 7.722,3.404 12.349,11.418 11.435,19.807 C -36.048,-0.398 -28.377,4.03 -22.872,0 -16.062,-4.984 -6.81,-4.984 0,0"
             style="fill:#213993;fill-opacity:1;fill-rule:nonzero;stroke:none"
             id="path10213" /></g><g
           id="g10215"
           transform="translate(435.0859,235.0469)"><path
             d="m 0,0 c 0,-2.899 -1.558,-5.799 -4.685,-7.172 -7.068,-3.116 -11.547,-10.102 -11.547,-17.697 0,-0.701 0.031,-1.403 0.114,-2.115 0.031,-0.3 0.052,-0.61 0.052,-0.899 0,-6.263 -7.235,-10.123 -12.497,-6.284 -3.396,2.487 -7.42,3.736 -11.434,3.736 -4.015,0 -8.028,-1.249 -11.434,-3.736 -1.445,-1.062 -3.045,-1.537 -4.602,-1.537 -4.355,0 -8.38,3.725 -7.833,8.72 0.072,0.701 0.114,1.403 0.114,2.094 0,1.795 -0.248,3.56 -0.733,5.253 2.064,-0.424 4.19,-0.64 6.367,-0.64 17.439,0 31.577,14.137 31.577,31.577 0,7.657 -2.725,14.684 -7.255,20.153 1.837,0.619 3.612,1.527 5.233,2.725 5.51,4.024 13.177,-0.403 12.445,-7.183 -0.083,-0.712 -0.114,-1.413 -0.114,-2.115 0,-7.595 4.479,-14.581 11.547,-17.697 C -1.558,5.811 0,2.91 0,0"
             style="fill:#182d7b;fill-opacity:1;fill-rule:nonzero;stroke:none"
             id="path10217" /></g><g
           id="g10219"
           transform="translate(406.5273,269.2217)"><path
             d="m 0,0 v 0 c 5.505,4.03 13.176,-0.398 12.438,-7.181 -0.913,-8.389 3.714,-16.403 11.436,-19.807 6.242,-2.753 6.242,-11.611 0,-14.363 C 16.152,-44.756 11.525,-52.77 12.438,-61.158 13.176,-67.941 5.505,-72.37 0,-68.34 c -6.81,4.985 -16.062,4.985 -22.872,0 -5.505,-4.03 -13.176,0.399 -12.439,7.182 0.914,8.388 -3.713,16.402 -11.435,19.807 -6.242,2.752 -6.242,11.61 0,14.363 7.722,3.404 12.349,11.418 11.435,19.807 C -36.048,-0.398 -28.377,4.03 -22.872,0 -16.062,-4.984 -6.81,-4.984 0,0 Z"
             style="fill:none;stroke:#000000;stroke-width:15;stroke-linecap:round;stroke-linejoin:round;stroke-miterlimit:10;stroke-dasharray:none;stroke-opacity:1"
             id="path10221" /></g></g></g></g></svg>
